#-- input output file names --
inputMeshFileName              mpmCheck/inputFiles/mesh.smf
inputSubMeshFileName           mpmCheck/inputFiles/submesh.dat
constraintsFileName   	       mpmCheck/inputFiles/mesh.constraints
inputSoilParticleFileName      mpmCheck/inputFiles/soilParticles.smf
materialFileName               mpmCheck/inputFiles/material.dat
outputFileName                 mpmCheck/results/results1.ile

#-- other parameters --
gravityFlag                    1
boundaryFrictionMiu            0.509
soilParticleSpacing            0.2
timeInterval                   1e-05
numberOfSteps                  10
numberOfSubStepsOS             1